%YAML 1.1
%TAG !u! tag:unity3d.com,2011:
--- !u!114 &11400000
MonoBehaviour:
  m_ObjectHideFlags: 0
  m_CorrespondingSourceObject: {fileID: 0}
  m_PrefabInstance: {fileID: 0}
  m_PrefabAsset: {fileID: 0}
  m_GameObject: {fileID: 0}
  m_Enabled: 1
  m_EditorHideFlags: 0
  m_Script: {fileID: 11500000, guid: b436e963b5d21b847a2ce192ee4ada77, type: 3}
  m_Name: Liquid Seam
  m_EditorClassIdentifier: 
  xSpan: {x: 0, y: 100}
  ySpan: {x: 0, y: 100}
  markArea: 0
  markType: 1
  seamAsMin: 0
  seamAsMax: 0
  biomeTypes: 0b00000005000000
  seamsList:
  - debugColor: {r: 0.054901958, g: 0.08046088, b: 0.2, a: 0.89411765}
    probability: 100
  - debugColor: {r: 0, g: 0, b: 0, a: 0}
    probability: 20
