%YAML 1.1
%TAG !u! tag:unity3d.com,2011:
--- !u!114 &11400000
MonoBehaviour:
  m_ObjectHideFlags: 0
  m_CorrespondingSourceObject: {fileID: 0}
  m_PrefabInstance: {fileID: 0}
  m_PrefabAsset: {fileID: 0}
  m_GameObject: {fileID: 0}
  m_Enabled: 1
  m_EditorHideFlags: 0
  m_Script: {fileID: 11500000, guid: 96a08a451818e13439db82d3342b746f, type: 3}
  m_Name: Desert
  m_EditorClassIdentifier: 
  type: 4
  index: 4
  value: 0.2
  voidCutoff: 0.4
  color: {r: 0.9433962, g: 0.6109583, b: 0.4138483, a: 1}
  tiles:
  - tileData: {fileID: 11400000, guid: 0b45badb2d9195c4f9bb7282c769a3d3, type: 2}
    probability: 100
  - tileData: {fileID: 11400000, guid: 0390bdefab9f32040b1c4c8ba4ca78e5, type: 2}
    probability: 100
  - tileData: {fileID: 11400000, guid: 3f08b39d2c5d4c04793fa9aafef57b0a, type: 2}
    probability: 2
  - tileData: {fileID: 11400000, guid: 1c41d785259034b40aae166927151e2b, type: 2}
    probability: 5
  - tileData: {fileID: 11400000, guid: cbe31098ee78e7040b49de05d043f9c7, type: 2}
    probability: 10
  - tileData: {fileID: 11400000, guid: 636cbf7652aee9e478b60dea465c9eb7, type: 2}
    probability: 10
  - tileData: {fileID: 11400000, guid: 27d33c47fb3d98341ab17521b811a4b2, type: 2}
    probability: 80
  - tileData: {fileID: 11400000, guid: 1e7aab7fa324c7d4f90d6f408eb6dfd0, type: 2}
    probability: 15
  - tileData: {fileID: 11400000, guid: f9080452ac2a6d54593f15ab4063417a, type: 2}
    probability: 15
  - tileData: {fileID: 11400000, guid: 6c266198c6381f747a983f6a0f892233, type: 2}
    probability: 10
  - tileData: {fileID: 11400000, guid: c8a7214f06013e147aecb7a47137b182, type: 2}
    probability: 10
  - tileData: {fileID: 11400000, guid: 2a14c35caf8856e4fbc9f093cf06f612, type: 2}
    probability: 2
