%YAML 1.1
%TAG !u! tag:unity3d.com,2011:
--- !u!114 &11400000
MonoBehaviour:
  m_ObjectHideFlags: 0
  m_CorrespondingSourceObject: {fileID: 0}
  m_PrefabInstance: {fileID: 0}
  m_PrefabAsset: {fileID: 0}
  m_GameObject: {fileID: 0}
  m_Enabled: 1
  m_EditorHideFlags: 0
  m_Script: {fileID: 11500000, guid: 96a08a451818e13439db82d3342b746f, type: 3}
  m_Name: Magic
  m_EditorClassIdentifier: 
  type: 9
  index: 9
  value: 0.45000002
  voidCutoff: 0.4
  color: {r: 0.5982505, g: 0.25044498, b: 0.7924528, a: 1}
  tiles:
  - tileData: {fileID: 11400000, guid: b62ee2cc3d9906e4c9ca7613c07142c2, type: 2}
    probability: 5
  - tileData: {fileID: 11400000, guid: 6f80d2385b675d647bd55fb02cc55708, type: 2}
    probability: 100
  - tileData: {fileID: 11400000, guid: b6e0aac949adc1a479d85131f1c99344, type: 2}
    probability: 10
  - tileData: {fileID: 11400000, guid: 2a14c35caf8856e4fbc9f093cf06f612, type: 2}
    probability: 25
  - tileData: {fileID: 11400000, guid: f45810787deb59a4291d829b860eebbd, type: 2}
    probability: 25
  - tileData: {fileID: 11400000, guid: 181bb225aede2644b979d6a51e3f9e63, type: 2}
    probability: 25
  - tileData: {fileID: 11400000, guid: 0571e5f557b194449bfa2a0b4f758ee1, type: 2}
    probability: 100
  - tileData: {fileID: 11400000, guid: 275dbc4c6148d144e968cc8fade0f73f, type: 2}
    probability: 2
  - tileData: {fileID: 11400000, guid: 88931137c52646442899ad4915decefc, type: 2}
    probability: 5
