%YAML 1.1
%TAG !u! tag:unity3d.com,2011:
--- !u!114 &11400000
MonoBehaviour:
  m_ObjectHideFlags: 0
  m_CorrespondingSourceObject: {fileID: 0}
  m_PrefabInstance: {fileID: 0}
  m_PrefabAsset: {fileID: 0}
  m_GameObject: {fileID: 0}
  m_Enabled: 1
  m_EditorHideFlags: 0
  m_Script: {fileID: 11500000, guid: 96a08a451818e13439db82d3342b746f, type: 3}
  m_Name: Sea
  m_EditorClassIdentifier: 
  type: 5
  index: 5
  value: 0.25
  voidCutoff: 0.6
  color: {r: 0.11213954, g: 0.16145307, b: 0.6792453, a: 1}
  tiles:
  - tileData: {fileID: 11400000, guid: 0b45badb2d9195c4f9bb7282c769a3d3, type: 2}
    probability: 100
  - tileData: {fileID: 11400000, guid: 0390bdefab9f32040b1c4c8ba4ca78e5, type: 2}
    probability: 35
  - tileData: {fileID: 11400000, guid: 636cbf7652aee9e478b60dea465c9eb7, type: 2}
    probability: 15
  - tileData: {fileID: 11400000, guid: 1e7aab7fa324c7d4f90d6f408eb6dfd0, type: 2}
    probability: 20
  - tileData: {fileID: 11400000, guid: a2b33d47fbab71b4c84d7ae711cdc4ae, type: 2}
    probability: 2
  - tileData: {fileID: 11400000, guid: f9080452ac2a6d54593f15ab4063417a, type: 2}
    probability: 2
  - tileData: {fileID: 11400000, guid: ea1cb95676b56654ba451aa3ac320bf3, type: 2}
    probability: 5
  - tileData: {fileID: 11400000, guid: 6c266198c6381f747a983f6a0f892233, type: 2}
    probability: 5
