%YAML 1.1
%TAG !u! tag:unity3d.com,2011:
--- !u!114 &11400000
MonoBehaviour:
  m_ObjectHideFlags: 0
  m_CorrespondingSourceObject: {fileID: 0}
  m_PrefabInstance: {fileID: 0}
  m_PrefabAsset: {fileID: 0}
  m_GameObject: {fileID: 0}
  m_Enabled: 1
  m_EditorHideFlags: 0
  m_Script: {fileID: 11500000, guid: 96a08a451818e13439db82d3342b746f, type: 3}
  m_Name: Sky
  m_EditorClassIdentifier: 
  type: 14
  index: 14
  value: 0.7
  voidCutoff: 0.4
  color: {r: 0.9056604, g: 0.7390531, b: 0.81531537, a: 1}
  tiles: []
