%YAML 1.1
%TAG !u! tag:unity3d.com,2011:
--- !u!114 &11400000
MonoBehaviour:
  m_ObjectHideFlags: 0
  m_CorrespondingSourceObject: {fileID: 0}
  m_PrefabInstance: {fileID: 0}
  m_PrefabAsset: {fileID: 0}
  m_GameObject: {fileID: 0}
  m_Enabled: 1
  m_EditorHideFlags: 0
  m_Script: {fileID: 11500000, guid: 96a08a451818e13439db82d3342b746f, type: 3}
  m_Name: Swamp
  m_EditorClassIdentifier: 
  type: 3
  index: 3
  value: 0.15
  voidCutoff: 0.4
  color: {r: 0.30128, g: 0.4627451, b: 0.09411764, a: 1}
  tiles:
  - tileData: {fileID: 11400000, guid: 3f08b39d2c5d4c04793fa9aafef57b0a, type: 2}
    probability: 15
  - tileData: {fileID: 11400000, guid: 4107dbc46f7bb244ca4b698138f7ef93, type: 2}
    probability: 60
  - tileData: {fileID: 11400000, guid: 5976a2e27e710e444807ef9726acd146, type: 2}
    probability: 80
  - tileData: {fileID: 11400000, guid: ea1cb95676b56654ba451aa3ac320bf3, type: 2}
    probability: 100
  - tileData: {fileID: 11400000, guid: d83e20b5163cdf9458e036782d6500dc, type: 2}
    probability: 25
  - tileData: {fileID: 11400000, guid: 39acce7651d98f74899d97c1942188ab, type: 2}
    probability: 10
  - tileData: {fileID: 11400000, guid: 70748eefe4739f3408ca104e1dce4f2a, type: 2}
    probability: 15
