%YAML 1.1
%TAG !u! tag:unity3d.com,2011:
--- !u!114 &11400000
MonoBehaviour:
  m_ObjectHideFlags: 0
  m_CorrespondingSourceObject: {fileID: 0}
  m_PrefabInstance: {fileID: 0}
  m_PrefabAsset: {fileID: 0}
  m_GameObject: {fileID: 0}
  m_Enabled: 1
  m_EditorHideFlags: 0
  m_Script: {fileID: 11500000, guid: 3c90707dcf6a750439243f89355a10a7, type: 3}
  m_Name: Amethyst
  m_EditorClassIdentifier: 
  type: 3
  material: 5
  index: 8
  value: 0.6328438
  debugColor: {r: 0.47964188, g: 0.11690103, b: 0.6698113, a: 1}
