%YAML 1.1
%TAG !u! tag:unity3d.com,2011:
--- !u!114 &11400000
MonoBehaviour:
  m_ObjectHideFlags: 0
  m_CorrespondingSourceObject: {fileID: 0}
  m_PrefabInstance: {fileID: 0}
  m_PrefabAsset: {fileID: 0}
  m_GameObject: {fileID: 0}
  m_Enabled: 1
  m_EditorHideFlags: 0
  m_Script: {fileID: 11500000, guid: 3c90707dcf6a750439243f89355a10a7, type: 3}
  m_Name: Emerald
  m_EditorClassIdentifier: 
  type: 15
  material: 5
  index: 8
  value: 0.8074828
  debugColor: {r: 0.0078431405, g: 0.6039216, b: 0.024746297, a: 1}
