%YAML 1.1
%TAG !u! tag:unity3d.com,2011:
--- !u!114 &11400000
MonoBehaviour:
  m_ObjectHideFlags: 0
  m_CorrespondingSourceObject: {fileID: 0}
  m_PrefabInstance: {fileID: 0}
  m_PrefabAsset: {fileID: 0}
  m_GameObject: {fileID: 0}
  m_Enabled: 1
  m_EditorHideFlags: 0
  m_Script: {fileID: 11500000, guid: 1dca63ed0f23f144186095b3d20609af, type: 3}
  m_Name: _Default Rules
  m_EditorClassIdentifier: 
  rulesList:
  - {fileID: 11400000, guid: 1aad8bce54cd6134f9745731479a67ad, type: 2}
  - {fileID: 11400000, guid: e630f6308ba3fd44bbb4e1612b2a9b50, type: 2}
  - {fileID: 11400000, guid: c4d15c4fb2ec8514ebaa491a17c0babd, type: 2}
  - {fileID: 11400000, guid: 4205f221d39183843ac74da0dd82c004, type: 2}
  - {fileID: 11400000, guid: 34813754dac234c419076583d604ccd5, type: 2}
  - {fileID: 11400000, guid: f641db20237932e4a9d5ad515edf39bc, type: 2}
  - {fileID: 11400000, guid: 3d2bca94c241f784a8971433b11180cc, type: 2}
  - {fileID: 11400000, guid: fb115834992187b4fa5c33d5d809c6a2, type: 2}
  - {fileID: 11400000, guid: 35c9c803cae94604cbf7218cd65a6743, type: 2}
  - {fileID: 11400000, guid: b0c7580df13a88944b9a27ab8c6f350d, type: 2}
  - {fileID: 11400000, guid: fab2fe9a233e3954ab0ce15091770c78, type: 2}
  - {fileID: 11400000, guid: 577489f82f1df584197a9ce561edd389, type: 2}
  - {fileID: 11400000, guid: 918468480951947459d87eeea6bc68f0, type: 2}
  - {fileID: 11400000, guid: de75691771e01b34f9e0b020dae52ecf, type: 2}
  - {fileID: 11400000, guid: 3713474a029d8384fb2dbbcd4ddfd2bc, type: 2}
