%YAML 1.1
%TAG !u! tag:unity3d.com,2011:
--- !u!114 &11400000
MonoBehaviour:
  m_ObjectHideFlags: 0
  m_CorrespondingSourceObject: {fileID: 0}
  m_PrefabInstance: {fileID: 0}
  m_PrefabAsset: {fileID: 0}
  m_GameObject: {fileID: 0}
  m_Enabled: 1
  m_EditorHideFlags: 0
  m_Script: {fileID: 11500000, guid: 66e5fd10050613a4a9974d8dc928e827, type: 3}
  m_Name: DL2
  m_EditorClassIdentifier: 
  xSpan: {x: 5, y: 95}
  ySpan: {x: 65, y: 70}
  SkyAsYMin: 0
  SkyAsYMax: 0
  SheerAsYMin: 0
  SheerAsYMax: 0
  PadBorderX: 1
  PadBorderY: 0
  biomesList:
  - biomeData: {fileID: 11400000, guid: d209967ee2efd3843bc49e62a8c46607, type: 2}
    probability: 80
  - biomeData: {fileID: 11400000, guid: d8ccae518e4ed444cb8b5561fe7acf58, type: 2}
    probability: 80
  - biomeData: {fileID: 11400000, guid: add2583de4d022740b1f3ac9bb246908, type: 2}
    probability: 80
  - biomeData: {fileID: 11400000, guid: 6f9bb567b4f323449b374d0550543b3c, type: 2}
    probability: 10
  - biomeData: {fileID: 11400000, guid: 8fbfeb359a7ed3f4caf9d483386f44e8, type: 2}
    probability: 10
  - biomeData: {fileID: 11400000, guid: 31d9c43630ab2be46b7efcbfeaeb282e, type: 2}
    probability: 10
  - biomeData: {fileID: 11400000, guid: 500cf5d4396d23549812b2684c7beeec, type: 2}
    probability: 40
  - biomeData: {fileID: 11400000, guid: b365d4386a914674eaae98bf3c4cd0a2, type: 2}
    probability: 40
  - biomeData: {fileID: 11400000, guid: bebaa21dd1da4ab49b36dfeb39318953, type: 2}
    probability: 2
  - biomeData: {fileID: 11400000, guid: cdfa62cb2a6eb1e4eac3d65061a5f97a, type: 2}
    probability: 2
